[gd_scene load_steps=4 format=2]

[sub_resource type="Gradient" id=1]
colors = PoolColorArray( 0.509804, 0, 0, 0.784314, 0, 0, 0, 0 )

[sub_resource type="GradientTexture" id=2]
gradient = SubResource( 1 )

[sub_resource type="Animation" id=3]
resource_name = "Left"
tracks/0/type = "value"
tracks/0/path = NodePath("Left:self_modulate")
tracks/0/interp = 1
tracks/0/loop_wrap = true
tracks/0/imported = false
tracks/0/enabled = true
tracks/0/keys = {
"times": PoolRealArray( 0, 0.05, 1 ),
"transitions": PoolRealArray( 15, 1, 1 ),
"update": 0,
"values": [ Color( 1, 1, 1, 0 ), Color( 1, 1, 1, 1 ), Color( 1, 1, 1, 0 ) ]
}

[node name="Background" type="Node2D"]

[node name="Left" type="Sprite" parent="."]
self_modulate = Color( 1, 1, 1, 0 )
position = Vector2( 208, 359.75 )
scale = Vector2( 0.203125, 720.5 )
texture = SubResource( 2 )

[node name="GradientAnimation" type="AnimationPlayer" parent="."]
anims/Left = SubResource( 3 )
