; Engine configuration file.
; It's best edited using the editor UI and not directly,
; since the parameters that go here are not all obvious.
;
; Format:
;   [section] ; section goes between []
;   param=value ; assign values to parameters

config_version=4

[application]

config/name="pong"
run/main_scene="res://Scenes/mainmenu.tscn"
config/icon="res://Assets/icon.png"

[autoload]

events="*res://Code/events.gd"
config="*res://Code/config.gd"

[debug]

gdscript/warnings/unused_signal=false
gdscript/warnings/return_value_discarded=false

[display]

window/size/width=1280
window/size/height=720
window/dpi/allow_hidpi=true
window/stretch/mode="2d"
window/stretch/aspect="keep"

[input]

pointer={
"deadzone": 0.5,
"events": [ Object(InputEventMouseButton,"resource_local_to_scene":false,"resource_name":"","device":0,"alt":false,"shift":false,"control":false,"meta":false,"command":false,"button_mask":0,"position":Vector2( 0, 0 ),"global_position":Vector2( 0, 0 ),"factor":1.0,"button_index":1,"pressed":false,"doubleclick":false,"script":null)
 ]
}

[input_devices]

pointing/emulate_touch_from_mouse=true

[layer_names]

2d_physics/layer_1="Ball"
2d_physics/layer_2="Paddle"
2d_physics/layer_3="Walls"

[physics]

2d/physics_engine="GodotPhysics"
2d/thread_model=2

[rendering]

environment/default_clear_color=Color( 0, 0, 0, 1 )
environment/default_environment="res://default_env.tres"
