[gd_resource type="StyleBoxFlat" format=2]

[resource]
bg_color = Color( 0.407843, 1, 0.65098, 1 )
corner_radius_top_left = 16
corner_radius_top_right = 16
corner_radius_bottom_right = 16
corner_radius_bottom_left = 16
