<?xml version="1.0" encoding="UTF-8" standalone="no"?>
<!-- Created with Inkscape (http://www.inkscape.org/) -->

<svg
   width="1920"
   height="1080"
   viewBox="0 0 507.99999 285.75"
   version="1.1"
   id="svg5"
   sodipodi:docname="logo.svg"
   inkscape:version="1.2 (dc2aedaf03, 2022-05-15)"
   xmlns:inkscape="http://www.inkscape.org/namespaces/inkscape"
   xmlns:sodipodi="http://sodipodi.sourceforge.net/DTD/sodipodi-0.dtd"
   xmlns="http://www.w3.org/2000/svg"
   xmlns:svg="http://www.w3.org/2000/svg">
  <sodipodi:namedview
     id="namedview7"
     pagecolor="#505050"
     bordercolor="#eeeeee"
     borderopacity="1"
     inkscape:showpageshadow="0"
     inkscape:pageopacity="0"
     inkscape:pagecheckerboard="0"
     inkscape:deskcolor="#505050"
     inkscape:document-units="px"
     showgrid="true"
     inkscape:zoom="0.23212854"
     inkscape:cx="650.50167"
     inkscape:cy="280.01727"
     inkscape:window-width="1672"
     inkscape:window-height="911"
     inkscape:window-x="0"
     inkscape:window-y="0"
     inkscape:window-maximized="1"
     inkscape:current-layer="text238">
    <inkscape:grid
       type="xygrid"
       id="grid132"
       spacingx="2.1166666"
       spacingy="2.1166666"
       empspacing="5" />
  </sodipodi:namedview>
  <defs
     id="defs2">
    <rect
       x="79.999998"
       y="79.999998"
       width="1760"
       height="919.99998"
       id="rect240" />
  </defs>
  <g
     inkscape:label="Layer 1"
     inkscape:groupmode="layer"
     id="layer1">
    <g
       aria-label="PONG"
       transform="scale(0.26458333)"
       id="text238"
       style="font-size:40px;line-height:1.25;white-space:pre;shape-inside:url(#rect240);stroke-width:3.77953">
      <path
         d="m 301.24948,310.99597 q 78.20004,0 113.90006,34.00002 36.26669,33.43335 36.26669,92.36672 0,35.13335 -14.73334,66.30004 -14.73334,30.60002 -49.30003,49.30003 -34.00002,18.70001 -92.93339,18.70001 H 257.61612 V 715.5962 H 172.0494 V 310.99597 Z m -4.53334,70.26671 h -39.10002 v 120.1334 h 28.33335 q 36.26668,0 57.23336,-14.16667 21.53335,-14.73335 21.53335,-47.03336 0,-58.93337 -68.00004,-58.93337 z"
         style="font-weight:bold;font-size:566.667px;-inkscape-font-specification:'sans-serif, Bold';text-align:center;text-anchor:middle"
         id="path1060" />
      <path
         d="M 1337.6833,715.5962 H 1228.8832 L 1052.6498,409.59603 h -2.2667 q 1.1334,28.90001 2.2667,57.80003 1.7,28.90002 2.8333,57.80003 V 715.5962 H 978.98299 V 310.99597 h 108.23351 l 175.6667,303.16684 h 1.7 q -0.5666,-28.33335 -1.7,-56.10003 -1.1333,-27.76668 -2.2666,-55.53337 V 310.99597 h 77.0667 z"
         style="font-weight:bold;font-size:566.667px;-inkscape-font-specification:'sans-serif, Bold';text-align:center;text-anchor:middle"
         id="path1064" />
      <path
         d="m 1593.25,488.36274 h 160.3667 v 209.66679 q -31.7333,10.76667 -66.3,17.00001 -34,6.23333 -77.6334,6.23333 -90.6667,0 -139.4001,-53.26669 -48.7333,-53.2667 -48.7333,-155.26676 0,-63.4667 24.3666,-109.9334 24.9334,-46.46669 71.9668,-71.9667 47.0333,-25.50002 115.0334,-25.50002 32.3,0 63.4667,6.80001 31.1666,6.8 56.6667,18.13334 l -28.3334,68.5667 q -18.7,-9.63333 -42.5,-15.86667 -23.8,-6.23334 -49.8667,-6.23334 -37.4,0 -65.1667,17.00001 -27.2,17.00001 -42.5,48.1667 -14.7334,30.60001 -14.7334,72.53337 0,39.66669 10.7667,70.26671 10.7667,30.60002 34,48.16669 23.2334,17.00001 60.6334,17.00001 18.1333,0 30.6,-1.7 13.0333,-1.7 23.8,-3.96667 v -84.43338 h -76.5 z"
         style="font-weight:bold;font-size:566.667px;-inkscape-font-specification:'sans-serif, Bold';text-align:center;text-anchor:middle"
         id="path1066" />
      <path
         style="font-size:40px;line-height:1.25;white-space:pre;shape-inside:url(#rect240);fill:none;stroke:#ffc33e;stroke-width:16;stroke-linecap:round;stroke-linejoin:miter;stroke-dasharray:none;stroke-opacity:1"
         d="m 839.99996,359.99996 40,-39.99999 c 16,-40 16,-104.00001 -24,-144.00001 0,0 -56,-56 -175.99999,-16 -120,40 -160,120.00001 -160,120.00001"
         id="path1231"
         sodipodi:nodetypes="ccccc" />
      <circle
         style="font-size:40px;line-height:1.25;white-space:pre;shape-inside:url(#rect240);fill:#000000;fill-opacity:0.961539;stroke:#ffffff;stroke-width:1.8e-07;stroke-linecap:round;stroke-linejoin:round;stroke-dasharray:none;stroke-dashoffset:19.9999"
         id="path1118"
         cx="680"
         cy="520"
         r="200" />
      <rect
         style="fill:#000000;fill-opacity:0.961539;stroke:#ffffff;stroke-width:1.8e-07;stroke-linecap:round;stroke-linejoin:round;stroke-dasharray:none;stroke-dashoffset:19.9999"
         id="rect1175"
         width="80"
         height="80"
         x="808.52808"
         y="-379.41119"
         transform="rotate(44.999995)" />
      <path
         style="fill:#ffffff;fill-opacity:0;stroke:#808080;stroke-width:16.00000004;stroke-linecap:round;stroke-linejoin:round;stroke-dashoffset:19.9999;stroke-opacity:1;stroke-dasharray:none"
         d="M 172.31832,512.38947 V 310.7349 l 82.3897,1.1336 c 93.13405,1.28144 102.59599,2.47447 132.70919,16.73295 43.09899,20.4072 64.68,60.74864 62.15968,116.19522 -2.93159,64.49351 -39.68931,107.64094 -102.78627,120.65397 -15.35858,3.16753 -29.19369,4.22727 -55.46496,4.24851 l -35.00216,0.0283 v 72.1583 72.1583 H 214.32091 172.31832 Z M 322.345,497.71204 c 17.08892,-5.25839 30.938,-15.68018 37.25109,-28.03239 4.49071,-8.78653 5.4482,-13.70271 5.45368,-28.00172 0.008,-20.63301 -3.30109,-31.2349 -13.15216,-42.13886 -12.92707,-14.30871 -24.94896,-17.93999 -62.72593,-18.94671 l -32.84818,-0.87538 v 61.92809 61.92808 l 27.46324,-1.22354 c 15.37295,-0.6849 32.34765,-2.72652 38.55826,-4.63757 z"
         id="path5921" />
      <path
         style="fill:#ffffff;fill-opacity:0;stroke:#808080;stroke-width:16;stroke-linecap:round;stroke-linejoin:round;stroke-dasharray:none;stroke-dashoffset:19.9999;stroke-opacity:1"
         d="M 641.88575,715.21562 C 531.15925,691.37484 461.79196,585.43888 485.97083,477.10635 499.7633,415.3097 544.82072,361.05564 602.18115,337.17643 c 29.47509,-12.27051 49.69627,-15.74759 84.93816,-14.6053 34.67286,1.12383 54.36755,5.95432 81.8512,20.07552 19.98736,10.26956 20.64492,10.80134 17.7179,14.32818 -1.97623,2.38124 3.06669,8.49589 25.31445,30.69427 23.24608,23.19448 28.30343,27.28816 30.97387,25.07189 2.68881,-2.23151 4.4482,-0.40166 11.16916,11.61655 54.59361,97.62248 14.83068,223.70765 -86.25237,273.49959 -29.43789,14.50065 -46.40198,18.54934 -81.8512,19.53476 -20.66062,0.57434 -34.56414,-0.11093 -44.15657,-2.17627 z"
         id="path7579" />
      <path
         style="fill:#ffffff;fill-opacity:0;stroke:#808080;stroke-width:16;stroke-linecap:round;stroke-linejoin:round;stroke-dasharray:none;stroke-dashoffset:19.9999;stroke-opacity:1"
         d="M 980.06046,512.60938 V 311.17471 l 53.26664,0.57613 53.2666,0.57612 87.2842,150.60025 c 77.9083,134.42313 97.0947,165.25262 91.7799,147.47572 -0.8444,-2.82414 -2.0996,-71.2889 -2.7895,-152.14389 l -1.2543,-147.00907 h 38.0035 38.0035 v 201.39704 201.39704 l -54.388,-0.0969 -54.388,-0.0969 -87.4288,-152.18181 c -48.0859,-83.70005 -88.5991,-152.5719 -90.0292,-153.04863 -1.9774,-0.6591 -2.3008,4.98999 -1.35,23.57852 4.6417,90.75009 5.3863,117.66474 5.3988,195.14812 l 0.014,86.69766 h -37.6946 -37.69464 z"
         id="path7581" />
      <path
         style="fill:#ffffff;fill-opacity:0;stroke:#808080;stroke-width:16;stroke-linecap:round;stroke-linejoin:round;stroke-dasharray:none;stroke-dashoffset:19.9999;stroke-opacity:1"
         d="m 1571.2334,717.54741 c -74.3332,-12.2432 -121.2819,-55.66324 -139.9612,-129.44167 -9.7647,-38.56792 -10.7605,-98.79391 -2.241,-135.52946 16.9952,-73.28198 67.8965,-122.81304 144.4505,-140.56208 24.6322,-5.71097 91.3111,-5.69961 117.3918,0.02 19.7658,4.33471 56.0558,15.64646 58.7166,18.30215 0.8998,0.89814 -4.4692,16.25424 -11.9313,34.12468 l -13.5672,32.4917 -12.6476,-5.3335 c -31.2212,-13.16601 -73.9871,-18.76802 -104.2474,-13.65564 -47.098,7.95707 -82.9121,44.32457 -94.0854,95.53919 -5.2209,23.93079 -3.5187,77.52151 3.1927,100.51728 6.5842,22.55998 15.9278,38.99069 29.4397,51.76968 22.2675,21.05967 50.645,28.32582 93.0943,23.8371 36.6777,-3.87839 32.6498,2.02349 32.6498,-47.84093 v -42.82836 h -38.7716 -38.7716 v -34.46367 -34.46366 h 79.7179 79.7179 l -0.5592,103.75736 -0.5592,103.75737 -21.5398,6.19077 c -48.5496,13.95367 -120.6943,20.20139 -159.4887,13.81168 z"
         id="path7583" />
      <path
         style="fill:none;stroke:#666666;stroke-width:24;stroke-linecap:round;stroke-linejoin:miter;stroke-dasharray:none;stroke-opacity:1"
         d="m 551.99999,439.99999 c 16,-48 80,-80 128,-80"
         id="path7723"
         sodipodi:nodetypes="cc" />
    </g>
  </g>
</svg>
