[gd_resource type="StyleBoxFlat" format=2]

[resource]
bg_color = Color( 0.435294, 0.054902, 0.054902, 1 )
corner_radius_top_left = 16
corner_radius_top_right = 16
corner_radius_bottom_right = 16
corner_radius_bottom_left = 16
